{
    "table":{
    "en": {
        "LANGUAGE_NAME": "English",
        "LANGUAGE": "Language",
        "INTERNET_CONNECTED": "Мы подключились к интернету.",
        "INTERNET_DISCONNECTED": "К сожалению, мы не можем подключиться к серверу.<br>Проверь своё интернет-соединение.",
        "ROOM_DESTROYED": "К сожалению, произошла сетевая ошибка и твоя комната была разрушена.<br>Проверь своё интернет-соединение.",
        "SOCKET_DISCONNECTED": "К сожалению, мы потеряли подключение к серверу.",
        "TIMEOUT": "К сожалению, мы не можем подключиться к серверу.<br>Проверь своё интернет-соединение.",
        "USER_DISCONNECT": "К сожалению, сервер отключил тебя. Попробуй ещё.",
        "LOST_LICENSE": "К сожалению, мы не можем найти лицензию!",
        "STEAM_ERROR": "К сожалению, мы не можем проверить твою лицензию Steam.",
        "TWITCH_PRIME_ERROR": "К сожалению, мы не можем проверить твою лицензию Twitch Prime.",
        "LOST_DLC": "К сожалению, мы не можем проверить твою лицензию на загружаемый контент DLC. Возвращаемся в меню...",
        "BACK": "Назад",
        "CLOSE": "Закрыть",
        "CANCEL": "Отмена",
        "SELECT": "Выбрать",
        "OR": "или",
        "ON": "Вкл",
        "OFF": "Выкл",
        "HIDE": "Скрыть",
        "UNHIDE": "Показать",
        "JOIN": "Заходи!",
        "PLAY": "ИГРАТЬ",
        "SETTINGS": "НАСТРОЙКИ",
        "BACK_TO_PACK": "НАЗАД",
        "PLAY_DESCRIPTION": "Создать игровую комнату и начать игру",
        "SETTINGS_DESCRIPTION": "Всё, что можно настроить",
        "BACK_TO_PACK_DESCRIPTION": "Вернуться в Party Pack",
        "SETTINGS_TITLE": "НАСТРОЙКИ",
        "CONNECTING": "Подключение к игровым серверам",
        "CONNECTING_DELAY": "Что-то долго...<br>Проверь своё интернет-соединение.",
        "GO_TO": "Зайди на",
        "JOIN_ON_YOUR_DEVICE": "на своём устройстве, чтобы зайти в игру!",
        "ENTER_ROOM_CODE": "Код комнаты",
        "POST_GAME_CHOICE_TITLE": "Что выберешь?",
        "EVERYBODY_S_IN": "Нажми ВСЕ ЗДЕСЬ, чтобы начать!",
        "PRESS": "Нажми",
        "TO_START": "чтобы начать",
        "TO_CANCEL": "для отмены",
        "TO_START_GAME": "чтобы начать",
        "TO_CANCEL_GAME": "для отмены",
        "JOIN_AUDIENCE": "Заходи в зрители!",
        "PLAY_AGAIN_WITH": "Сыграть ещё?",
        "SAME_PLAYERS": "ТЕ ЖЕ ИГРОКИ",
        "LOBBY_OR": "или",
        "NEW_PLAYERS": "НОВЫЕ ИГРОКИ",
        "FULL_SCREEN": "На весь экран",
        "FULL_SCREEN_DESCRIPTION": "Развернуть игру на весь экран.",
        "VOLUME": "Общая громкость",
        "VOLUME_DESCRIPTION": "Управление громкостью игры.",
        "VOLUME_HOST": "Громкость ведущего",
        "VOLUME_HOST_DESCRIPTION": "Управление громкостью ведущего.",
        "VOLUME_SFX": "Громкость эффектов",
        "VOLUME_SFX_DESCRIPTION": "Управление громкостью звуковых эффектов.",
        "VOLUME_MUSIC": "Громкость музыки",
        "VOLUME_MUSIC_DESCRIPTION": "Управление громкостью музыки.",
        "FAMILY_FRIENDLY": "Семейный фильтр",
        "FAMILY_FRIENDLY_DESCRIPTION": "Убирает самый провокационный контент из игры. А вот игроков мы не контролируем.",
        "PASSWORDED_GAME": "Комната с паролем",
        "PASSWORDED_GAME_DESCRIPTION": "Чтобы попасть в игру, игрокам нужно будет ввести пароль комнаты.",
        "AUDIENCE": "Зрители",
        "AUDIENCE_MODE": "Зрители",
        "AUDIENCE_MODE_DESCRIPTION": "Позволяет зрителям присоединяться к игре и влиять на её ход.",
        "TWITCH_REQUIRED": "Требовать Twitch",
        "TWITCH_REQUIRED_DESCRIPTION": "Чтобы попасть в игру, игрокам нужно будет авторизоваться через Twitch.",
        "MANUAL_CENSORING": "Ручная цензура",
        "MANUAL_CENSORING_DESCRIPTION": "Позволяет VIP-игроку (первому подключившемуся) вручную цензурировать ответы.",
        "POSTGAME_SHARING": "Делиться после игры",
        "POSTGAME_SHARING_DESCRIPTION": "Игроки смогут поделиться контентом из игры в соцсетях.",
        "START_GAMEPAD": "Начинать игру с клавиатуры",
        "START_GAMEPAD_DESCRIPTION": "Игру можно будет начать с клавиатуры, не с устройств игроков.",
        "HIDE_ROOM_CODE": "Разрешить скрытие кода комнаты",
        "HIDE_ROOM_CODE_DESCRIPTION": "Код комнаты в лобби можно будет скрыть.",
        "EXTENDED_TIMERS": "Увеличенные таймеры",
        "EXTENDED_TIMERS_DESCRIPTION": "Включает долгие таймеры. Рекомендуется для стримов.",
        "SKIP_TUTORIAL": "Пропускать объяснения",
        "SKIP_TUTORIAL_DESCRIPTION": "Игра будет проходить без объяснений правил.",
        "MAX_PLAYERS": "Количество игроков",
        "MAX_PLAYERS_DESCRIPTION": "Установить максимальное количество игроков.",
        "SUBTITLES": "Субтитры",
        "SUBTITLES_DESCRIPTION": "Отображение субтитров на экране."
    },
    "fr": {},
    "it": {},
    "de": {},
    "es": {}
}
}