{
    "table":{
    "en": {
        "LANGUAGE_NAME": "English",
        "LANGUAGE": "Language",
        "INTERNET_CONNECTED": "Мы подключились к интернету.",
        "INTERNET_DISCONNECTED": "К сожалению, мы не можем подключиться к серверу.<br>Проверь своё интернет-соединение.",
        "ROOM_DESTROYED": "К сожалению, произошла сетевая ошибка и твоя комната была разрушена.<br>Проверь своё интернет-соединение.",
        "SOCKET_DISCONNECTED": "К сожалению, мы потеряли подключение к серверу.",
        "TIMEOUT": "К сожалению, мы не можем подключиться к серверу.<br>Проверь своё интернет-соединение.",
        "USER_DISCONNECT": "К сожалению, сервер отключил тебя. Попробуй ещё.",
        "LOST_LICENSE": "К сожалению, мы не можем найти лицензию!",
        "STEAM_ERROR": "К сожалению, мы не можем проверить твою лицензию Steam.",
        "TWITCH_PRIME_ERROR": "К сожалению, мы не можем проверить твою лицензию Twitch Prime.",
        "LOST_DLC": "К сожалению, мы не можем проверить твою лицензию на загружаемый контент DLC. Возвращаемся в меню...",
        "BACK": "Назад",
        "CLOSE": "Закрыть",
        "CANCEL": "Отмена",
        "SELECT": "Выбрать",
        "OR": "или",
        "ON": "Вкл",
        "OFF": "Выкл",
        "HIDE": "Скрыть",
        "UNHIDE": "Показать",
        "JOIN": "Заходи!",
        "PLAY": "ИГРАТЬ",
        "SETTINGS": "НАСТРОЙКИ",
        "BACK_TO_PACK": "НАЗАД",
        "PLAY_DESCRIPTION": "Создать игровое лобби и начать игру",
        "SETTINGS_DESCRIPTION": "Цензура зрители, и другое",
        "BACK_TO_PACK_DESCRIPTION": "Вернуться в Party Pack",
        "SETTINGS_TITLE": "НАСТРОЙКИ",
        "CONNECTING": "Подключение к игровым серверам",
        "CONNECTING_DELAY": "Что-то долго...<br />Проверь своё интернет-соединение.",
        "GO_TO": "Зайди на",
        "JOIN_ON_YOUR_DEVICE": "на своём устройстве",
        "ENTER_ROOM_CODE": "ВВЕДИ КОД КОМНАТЫ",
        "POST_GAME_CHOICE_TITLE": "Что выберешь?",
        "EVERYBODY_S_IN": "Нажми ВСЕ ЗДЕСЬ, чтобы начать!",
        "PRESS": "Нажми",
        "TO_START": "чтобы начать",
        "TO_CANCEL": "для отмены",
        "TO_START_GAME": "чтобы начать",
        "TO_CANCEL_GAME": "для отмены",
        "JOIN_AUDIENCE": "Присоединяйся к зрителям!",
        "PLAY_AGAIN_WITH": "СЫГРАТЬ ЕЩЁ?",
        "SAME_PLAYERS": "ТЕ ЖЕ ИГРОКИ",
        "LOBBY_OR": "ИЛИ",
        "NEW_PLAYERS": "НОВЫЕ ИГРОКИ",
        "VOLUME": "Общая громкость",
        "VOLUME_DESCRIPTION": "Управление громкостью игры.",
        "VOLUME_HOST": "Громкость ведущего",
        "VOLUME_HOST_DESCRIPTION": "Управление громкостью ведущего.",
        "VOLUME_SFX": "Громкость эффектов",
        "VOLUME_SFX_DESCRIPTION": "Управление громкостью звуковых эффектов.",
        "VOLUME_MUSIC": "Громкость музыки",
        "VOLUME_MUSIC_DESCRIPTION": "Управление громкостью музыки.",
        "FULL_SCREEN": "На весь экран",
        "FULL_SCREEN_DESCRIPTION": "Развернуть игру на весь экран.",
        "AUDIENCE_MODE": "Зрители",
        "AUDIENCE_MODE_DESCRIPTION": "Позволяет зрителям присоединяться к игре и влиять на её ход.",
        "EXTENDED_TIMERS": "Увеличенные таймеры",
        "EXTENDED_TIMERS_DESCRIPTION": "Включает долгие таймеры. Рекомендуется для стримов.",
        "PASSWORD_PROTECTED": "Комната с паролем",
        "PASSWORD_PROTECTED_DESCRIPTION": "Чтобы попасть в игру, игрокам нужно будет ввести пароль комнаты.",
        "PASSWORD_IS": "Пароль вашей комнаты: ",
        "SKIP_TUTORIAL": "Пропускать объяснения",
        "SKIP_TUTORIAL_DESCRIPTION": "Игра будет проходить без объяснений правил.",
        "TWITCH_REQUIRED": "Требовать Twitch",
        "TWITCH_REQUIRED_DESCRIPTION": "Чтобы попасть в игру, игрокам нужно будет авторизоваться через Twitch.",
        "FAMILY_FRIENDLY": "Семейный фильтр",
        "FAMILY_FRIENDLY_DESCRIPTION": "Убирает самый провокационный контент из игры. А вот игроков мы не контролируем.",
        "POSTGAME_SHARING": "Делиться после игры",
        "POSTGAME_SHARING_DESCRIPTION": "Игроки смогут поделиться контентом из игры в соцсетях.",
        "MANUAL_CENSORING": "Ручная цензура",
        "MANUAL_CENSORING_DESCRIPTION": "Позволяет VIP-игроку (первому подключившемуся) вручную цензурировать ответы.",
        "START_GAMEPAD": "Начинать игру с клавиатуры",
        "START_GAMEPAD_DESCRIPTION": "Игру можно будет начать с клавиатуры, не с устройств игроков.",
        "HIDE_ROOM_CODE": "Разрешить скрытие кода комнаты",
        "HIDE_ROOM_CODE_DESCRIPTION": "Код комнаты в лобби можно будет скрыть.",
        "MAX_PLAYERS": "Количество игроков",
        "MAX_PLAYERS_DESCRIPTION": "Установить максимальное количество игроков. Остальные смогут присоединиться к зрителям.",
        "SUBTITLES": "Субтитры",
        "SUBTITLES_DESCRIPTION": "Отображение субтитров на экране.",
        
        "AUDIENCE": "Зрители",
        "SCOREBOARD_TITLE": "Лучшие комики",
        "WINNER_TITLE": "ПОБЕДИТЕЛЬ",
        "MOST_LIKES_TITLE": "БОЛЬШЕ ВСЕХ ЛАЙКОВ",
        "LEAST_LIKED_TITLE": "МЕНЬШЕ ВСЕХ ЛАЙКОВ",
        
        "LIKE": "ЛАЙК",
        "LIKES": "ЛАЙКОВ",
        "CENSORED": "ЦЕНЗУРА",
        "CAPTAIN_S_NAME": "Капитан Чак",
        
        "TOPIC_CATEGORY_ANIMAL": "животное",
        "TOPIC_CATEGORY_BRAND": "бренд",
        "TOPIC_CATEGORY_FOOD": "еда",
        "TOPIC_CATEGORY_LOCATION": "локация",
        "TOPIC_CATEGORY_OBJECT": "предмет",
        "TOPIC_CATEGORY_PERSON": "имя человека",
        "TOPIC_CATEGORY_THINGS": "существительное во мн. ч.",
        
        "TUTORIAL_SKIP_CONTROLLER_TITLE": "Нажми эту кнопку для пропуска объяснений:",
        "TUTORIAL_SKIP_CONTROLLER_BUTTON": "Пропустить!",
        
        "LOBBY_PICK_A_CATCHPHRASE_CONTROLLER_TITLE": "Дополни свою коронную фразу:",
        "LOBBY_PICK_A_CATCHPHRASE_CONTROLLER_DONE": "Спасибо.",
        "ROUND_WRITE_TOPIC_CONTROLLER_TITLE": "Напиши как можно больше объектов для шуток.",
        "ROUND_PICK_A_SETUP_CONTROLLER_TITLE": "<div class=\"count\">Шутка <CURRENTJOKE> (из 2)</div><div>Выбери сет-ап:",
        "ROUND_PICK_A_SETUP_CONTROLLER_DONE": "Спасибо.",
        "ROUND_PICK_A_TOPIC_CONTROLLER_TITLE": "<div class=\"count\">Шутка <CURRENTJOKE> (из 2)</div>Заверши сет-ап:",
        "ROUND_PICK_A_TOPIC_CONTROLLER_DONE": "Спасибо.",
        "ROUND_PICK_A_TOPIC_CONTROLLER_RESET": "Сменить варианты",
        "ROUND_PICK_A_TOPIC_CONTROLLER_RESET_HELP": "(Одна смена за раунд.)",
        "ROUND_WRITE_PUNCHLINE_CONTROLLER_TITLE": "<div class=\"count\">Шутка <CURRENTJOKE> (из 2)</div><div>Напиши панчлайн:</div>",
        "ROUND_WRITE_PUNCHLINE_CONTROLLER_PLACEHOLDER": "Панчлайн",
        "ROUND_WRITE_PUNCHLINE_CONTROLLER_DONE": "Ожидаем других игроков...",
        "ROUND_REVEAL_READ_YOUR_JOKE_CONTROLLER_TITLE": "Зачитай свою шутку, если хочешь. Это твой выбор.",
        "ROUND_REVEAL_AUTHOR_READY_CONTROLLER_TITLE": "Твой ход. Что выберешь?",
        "ROUND_REVEAL_AUTHOR_READY_CONTROLLER_BUTTON_PERFORMER": "Я зачитаю шутку!",
        "ROUND_REVEAL_AUTHOR_READY_CONTROLLER_BUTTON_AUTOMATIC": "Представьте шутку за меня.",
        "ROUND_REVEAL_AUTHOR_READY_CONTROLLER_BUTTON_PERFORMER_HELP": "(у тебя будет больше возможностей рассмешить всех.)",
        "ROUND_REVEAL_AUTHOR_READY_CONTROLLER_BUTTON_AUTOMATIC_HELP": "(жми, если остальные игроки не могут тебя услышать.)",
        "ROUND_REVEAL_AUTHOR_READY_CONTROLLER_DONE": "Пожалуйста, прочитай свою шутку:",
        "ROUND_REVEAL_AUTHOR_LOOK_AT_TV_AND_READ": "<div class=\"lookup\"></div><div>Посмотри на экран и зачитай свою шутку!</div>",
        "ROUND_REVEAL_CENSOR_CONTROLLER_TITLE": "Нажми на эту кнопку, чтобы скрыть шутку от %s.",
        "ROUND_REVEAL_CENSOR_CONTROLLER_BUTTON": "ЦЕНЗУРА",
        "ROUND_REVEAL_CENSOR_CONTROLLER_BUTTON_HELP": "(жми, если шутка некультурна)",
        "ROUND_REVEAL_PERFORMER_CONTROLLER_TITLE": "Прочти выделенную строку.",
        "ROUND_REVEAL_PERFORMER_PUNCHLINE_CONTROLLER_BUTTON": "Я готов зачитать панчлайн!",
        "ROUND_REVEAL_PERFORMER_RIMSHOT_CONTROLLER_BUTTON": "Каламбур!",
        "ROUND_REVEAL_PERFORMER_CATCHPHRASE_CONTROLLER_BUTTON": "Я готов зачитать мою коронную фразу!!",
        "ROUND_REVEAL_PERFORMER_DONE_CONTROLLER_BUTTON": "Я закончил!",
        "ROUND_REVEAL_PERFORMER_PUNCHLINE_CONTROLLER_HELP": "Нажми на кнопку, когда будешь готов зачитать панчлайн.",
        "ROUND_REVEAL_PERFORMER_CATCHPHRASE_CONTROLLER_HELP": "Нажми на кнопку, когда будешь готов зачитать свою коронную фразу.",
        "ROUND_REVEAL_PERFORMER_DONE_CONTROLLER_HELP": "",
        "ROUND_REVEAL_PERFORMER_CONTROLLER_CATCHPHRASE_TITLE": "Выбери, хочешь ли ты показать свою коронную фразу.",
        "ROUND_REVEAL_PERFORMER_SHOW_CATCHPHRASE_CONTROLLER_BUTTON": "Показать коронную фразу!",
        "ROUND_REVEAL_PERFORMER_IM_DONE_CONTROLLER_BUTTON": "Закончить (не показывать)!",
        "ROUND_REVEAL_VOTE_FOR_JOKE_CONTROLLER_TITLE": "Выбери понравившуюся шутку:",
        "ROUND_REVEAL_VOTE_FOR_JOKE_CONTROLLER_DONE": "Ожидаем остальных игроков...",
        "CENSORED_JOKE_REPLACEMENT_TEXT": "ЦЕНЗУРА",
        "ROUND_REVEAL_VOTE_FOR_JOKE_CENSORED_HELP": "(эта шутка была скрыта)",
        "ROUND_REVEAL_VOTE_AUTHOR_CONTROLLER_WAIT": "Это твоя работа. Подожди, пока остальные проголосуют.",
        "FINAL_ROUND_PICK_A_JOKE_CONTROLLER_TITLE": "Выбери шутку, которую хочешь переделать:",
        "FINAL_ROUND_PICK_A_JOKE_CONTROLLER_DONE": "Спасибо.",
        "FINAL_ROUND_PICK_A_JOKE_WORTH": "Стоит <BLANK> очков.",
        "FINAL_ROUND_WRITE_PUNCHLINE_CONTROLLER_TITLE": "Напиши новый панчлайн:",
        "FINAL_ROUND_WRITE_PUNCHLINE_CONTROLLER_PLACEHOLDER": "Панчлайн",
        "FINAL_ROUND_WRITE_PUNCHLINE_CONTROLLER_DONE": "Ожидаем остальных игроков...",
        "ERROR_CODE_ENTRY_TOO_LONG": "Твой ответ слишком длинный, пожалуйста, введи другой.",
        "ERROR_CODE_ENTRY_DUPLICATED": "Твой ответ уже был введён, пожалуйста, придумай другой.",
        "ERROR_CODE_TOO_MANY_ENTRIES": "Ты уже ввёл достаточно ответов.",
        "IS_UP_NOW": "на сцене!",
        "IS_UP_NEXT": "следующий.",
        "IS_UP_FIRST": "будет первым.",
        "RIMSHOT": "(Каламбур)",
        "MONTHS_OF_THE_YEAR": [ "января", "февраля", "марта", "апреля", "мая", "июня", "июля", "августа", "сентября", "октября", "ноября", "декабря" ],
        "DAYS_OF_THE_WEEK": [ "Воскресенье", "Понедельник", "Вторник", "Среда", "Четверг", "Пятница", "Суббота" ],
        "TIMEFORMAT" : "24",
        "INCOMPLETE_PUNCHLINE": "...Вы поняли, что я имею ввиду, да?",
        "CHOKED_PUNCHLINE": "Я в домике!",
        "JOKE_FOR_ME": "Авто-шутка",
        "SUBMIT": "Отправить",
        
        "RANK_1": "первый",
        "RANK_2": "второй",
        "RANK_3": "третий",
        "RANK_4": "четвёртый",
        "RANK_5": "пятый",
        "RANK_6": "шестой",
        "RANK_7": "седьмой",
        "RANK_8": "восьмой",
        
        "TEXT_DESCRIPTION_PLAYER_JOINED_VIP": "%s присоединился как VIP.",
        "TEXT_DESCRIPTION_PLAYER_JOINED": "%s присоединился.",
        "TEXT_DESCRIPTION_PLAYER_VIP": "%s – это VIP.",
        "TEXT_DESCRIPTION_PLAYER_CHOKED": "%s в домике.",
        "TEXT_DESCRIPTION_PLAYER_JOKE_FOR_ME": "%s использовал Авто-шутку.",
        "TEXT_DESCRIPTION_PLAYER_TOPIC_BONUS": "%s получил бонус за объект.",
        "TEXT_DESCRIPTION_VOTE_TIED": "Ничья между %s и %s!",
        "TEXT_DESCRIPTION_VOTE_WINNER": "Выигравшая шутка: \"%s\" (от %s). Процент голосов: %d.",
        "TEXT_DESCRIPTION_VOTE_CRUSHED_IT": "Шутка \"%s\" (от %s) победила всухую. Процент голосов: %d.",
        "TEXT_DESCRIPTION_SCOREBOARD_PLAYER_RANK": "%s – %s. Очков: %d.",
        "TEXT_DESCRIPTION_WINNER": "Победитель – %s. Очков: %d."
    },
    "fr": {},
    "it": {},
    "de": {},
    "es": {}
}
}