{
    "table":{
    "en": {
        "LANGUAGE_NAME": "English",
        "LANGUAGE": "Language",
        "INTERNET_CONNECTED": "Мы подключились к интернету.",
        "INTERNET_DISCONNECTED": "К сожалению, мы не можем подключиться к серверу.<br>Проверь своё интернет-соединение.",
        "ROOM_DESTROYED": "К сожалению, произошла сетевая ошибка и твоя комната была разрушена.<br>Проверь своё интернет-соединение.",
        "SOCKET_DISCONNECTED": "К сожалению, мы потеряли подключение к серверу.",
        "TIMEOUT": "К сожалению, мы не можем подключиться к серверу.<br>Проверь своё интернет-соединение.",
        "USER_DISCONNECT": "К сожалению, сервер отключил тебя. Попробуй ещё.",
        "USER_ACCESS_DENIED": "К сожалению, невозможно продолжить игру.",
        "START_PRIVILEGE_ERROR": "К сожалению, невозможно продолжить игру.",
        "TROPHY_PREPARE_ERROR": "К сожалению, невозможно продолжить игру.",
        "SAVE_PREPARE_FAIL": "К сожалению, невозможно продолжить игру.",
        "LICENSE_ERROR": "К сожалению, мы не можем найти лицензию!",
        "LOST_LICENSE": "К сожалению, мы не можем найти лицензию!",
        "STEAM_ERROR": "К сожалению, мы не можем проверить твою лицензию Steam.",
        "TWITCH_PRIME_ERROR": "К сожалению, мы не можем проверить твою лицензию Twitch Prime.",
        "LOST_DLC": "К сожалению, мы не можем проверить твою лицензию на загружаемый контент DLC. Возвращаемся в меню...",
        "START": "Начать",
        "LOADING_TEXT": "Загрузка...",
        "SWITCH_USER": "Сменить пользователя",
        "LEGAL": "Порт русификатора на Nintendo Switch от Башмачка. ПРЕДВАРИТЕЛЬНАЯ ВЕРСИЯ 4. ВОЗМОЖНЫ ОШИБКИ. Перевод на русский язык © 2019-2022 What If? https://whatif.one/<br />Создано и разработано Jackbox Games, Inc. Игра и программное обеспечение © 2019 Jackbox Games, Inc. Все права защищены. Jackbox Games, логотип головы Джека и логотип Jackbox Games являются зарегистрированными торговыми марками Jackbox Games, Inc. Trivia Murder Party, Role Models, Joke Boat, Dictionarium, Push the Button и Party Pack являются торговыми марками Jackbox Games, Inc. Все остальные торговые марки и логотипы являются собственностью их владельцев.",
        "LEGAL_CRIWARE": "На основе \"CRIWARE\". CRIWARE является торговой маркой<br />CRI Middleware Co., Ltd.",
        "LEGAL_FMOD": "Используется FMOD Sound System от Firelight Technologies",
        "LEGAL_SCALEFORM": "Данное программное обеспечение включает в себя Autodesk® Scaleform®, © 2012 Autodesk, Inc. Все права защищены.<br />Autodesk, Beast, HumanIK и Scaleform являются торговыми марками Autodesk, Inc., а также дочерних компаний в США и других странах."
    },
    "fr": {
        "LANGUAGE_NAME": "Français",
        "LANGUAGE": "Langue",
        "INTERNET_CONNECTED": "We've just found the internet.",
        "INTERNET_DISCONNECTED": "We're sorry, we can't seem to connect to the Jackbox Games servers.<br />Please check that your internet connection is working properly.",
        "ROOM_DESTROYED": "We're sorry, your room was destroyed.<br />We'll get you a new one as soon as possible.",
        "SOCKET_DISCONNECTED": "We're sorry, we've lost your connection to the Jackbox Games servers, we're going to retry.",
        "TIMEOUT": "We're sorry, we can't seem to connect to the Jackbox Games servers.<br />Please check that your internet connection is working properly.",
        "LOST_LICENSE": "We're sorry, we lost the license for this content!",
        "STEAM_ERROR": "We're sorry, we couldn't validate your Steam license.",
        "START": "Démarrer",
        "SWITCH_USER": "Changer d'utilisateur",
        "LEGAL": "Développé par Jackbox Games, Inc. Jeu et logiciel © 2015 Jackbox Games, Inc. Tous droits réservés. Marques Jackbox Games et le logo Jackbox Games sont des marques de Jackbox Games, Inc. Quiplash et le logo Quiplash \\rsont des marques de Jackbox Games, Inc. Toutes les autres marques et logos sont la propriété de leurs propriétaires respectifs."
    },
    "it": {
        "LANGUAGE_NAME": "Italiano",
        "LANGUAGE": "Lingua",
        "INTERNET_CONNECTED": "We've just found the internet.",
        "INTERNET_DISCONNECTED": "We're sorry, we can't seem to connect to the Jackbox Games servers.<br />Please check that your internet connection is working properly.",
        "ROOM_DESTROYED": "We're sorry, your room was destroyed.<br />We'll get you a new one as soon as possible.",
        "SOCKET_DISCONNECTED": "We're sorry, we've lost your connection to the Jackbox Games servers, we're going to retry.",
        "TIMEOUT": "We're sorry, we can't seem to connect to the Jackbox Games servers.<br />Please check that your internet connection is working properly.",
        "LOST_LICENSE": "We're sorry, we lost the license for this content!",
        "STEAM_ERROR": "We're sorry, we couldn't validate your Steam license.",
        "START": "Cominciare",
        "SWITCH_USER": "Cambia utente",
        "LEGAL": "Sviluppato da Jackbox Games, Inc. gioco e un software © 2015 Jackbox Games, Inc. Tutti i diritti riservati. Marchi\\rJackbox Games e il logo Jackbox Games sono marchi registrati di Jackbox Games, Inc. Quiplash e il logo Quiplash\\rari marchi di Jackbox Games, Inc. Tutti gli altri marchi e loghi sono di proprietà dei rispettivi proprietari."
    },
    "de": {
        "LANGUAGE_NAME": "Deutsche",
        "LANGUAGE": "Sprache",
        "INTERNET_CONNECTED": "We've just found the internet.",
        "INTERNET_DISCONNECTED": "We're sorry, we can't seem to connect to the Jackbox Games servers.<br />Please check that your internet connection is working properly.",
        "ROOM_DESTROYED": "We're sorry, your room was destroyed.<br />We'll get you a new one as soon as possible.",
        "SOCKET_DISCONNECTED": "We're sorry, we've lost your connection to the Jackbox Games servers, we're going to retry.",
        "TIMEOUT": "We're sorry, we can't seem to connect to the Jackbox Games servers.<br />Please check that your internet connection is working properly.",
        "LOST_LICENSE": "We're sorry, we lost the license for this content!",
        "STEAM_ERROR": "We're sorry, we couldn't validate your Steam license.",
        "START": "Anfang",
        "SWITCH_USER": "Benutzer wechseln",
        "LEGAL": "Entwickelt von Jackbox Games, Inc. Game und Software © 2015 Jackbox Games, Inc. Alle Rechte vorbehalten.\\rJackbox Games und die Jackbox Games Logo sind eingetragene Warenzeichen der Jackbox Games, Inc. Quiplash und dem Quiplash logo\\rseltenen Marken von Jackbox Games, Inc. Alle anderen Marken und Logos sind Eigentum der jeweiligen Inhaber."
    },
    "es": {
        "LANGUAGE_NAME": "Español",
        "LANGUAGE": "idioma",
        "INTERNET_CONNECTED": "We've just found the internet.",
        "INTERNET_DISCONNECTED": "We're sorry, we can't seem to connect to the Jackbox Games servers.<br />Please check that your internet connection is working properly.",
        "ROOM_DESTROYED": "We're sorry, your room was destroyed.<br />We'll get you a new one as soon as possible.",
        "SOCKET_DISCONNECTED": "We're sorry, we've lost your connection to the Jackbox Games servers, we're going to retry.",
        "TIMEOUT": "We're sorry, we can't seem to connect to the Jackbox Games servers.<br />Please check that your internet connection is working properly.",
        "LOST_LICENSE": "We're sorry, we lost the license for this content!",
        "STEAM_ERROR": "We're sorry, we couldn't validate your Steam license.",
        "START": "Empezar",
        "SWITCH_USER": "Cambiar de usuario",
        "LEGAL": "Desarrollado por Jackbox Games, Inc. Juegos y Software © 2015 Jackbox Games, Inc. Todos los derechos reservados. Marcas\\rJackbox Games y el logotipo Jackbox Games son marcas registradas de Jackbox Games, Inc. Quiplash y el logotipo Quiplash\\rmarcas raras de Jackbox Games, Inc. Todas las otras marcas comerciales y logotipos son propiedad de sus respectivos dueños."
    }
}
}
